-- Merging decision tree log ---
manifest
ADDED from /home/felix/Code/Flutter/material_drawer/android/app/src/main/AndroidManifest.xml:1:1-36:12
INJECTED from /home/felix/Code/Flutter/material_drawer/android/app/src/main/AndroidManifest.xml:1:1-36:12
INJECTED from /home/felix/Code/Flutter/material_drawer/android/app/src/main/AndroidManifest.xml:1:1-36:12
INJECTED from /home/felix/Code/Flutter/material_drawer/android/app/src/main/AndroidManifest.xml:1:1-36:12
MERGED from /home/felix/Code/Flutter/material_drawer/android/app/src/main/AndroidManifest.xml:1:1-36:12
MERGED from [:url_launcher] /home/felix/Code/Flutter/material_drawer/build/url_launcher/intermediates/merged_manifests/debug/processDebugManifest/merged/AndroidManifest.xml:2:1-14:12
MERGED from [:flutter_webview_plugin] /home/felix/Code/Flutter/material_drawer/build/flutter_webview_plugin/intermediates/merged_manifests/debug/processDebugManifest/merged/AndroidManifest.xml:2:1-7:12
INJECTED from /home/felix/Code/Flutter/material_drawer/android/app/src/debug/AndroidManifest.xml:1:1-7:12
INJECTED from /home/felix/Code/Flutter/material_drawer/android/app/src/debug/AndroidManifest.xml:1:1-7:12
INJECTED from /home/felix/Code/Flutter/material_drawer/android/app/src/debug/AndroidManifest.xml:1:1-7:12
	package
		ADDED from /home/felix/Code/Flutter/material_drawer/android/app/src/main/AndroidManifest.xml:2:5-45
		INJECTED from /home/felix/Code/Flutter/material_drawer/android/app/src/main/AndroidManifest.xml
		INJECTED from /home/felix/Code/Flutter/material_drawer/android/app/src/debug/AndroidManifest.xml
	android:versionName
		INJECTED from /home/felix/Code/Flutter/material_drawer/android/app/src/main/AndroidManifest.xml
		ADDED from /home/felix/Code/Flutter/material_drawer/android/app/src/main/AndroidManifest.xml:1:1-36:12
		INJECTED from /home/felix/Code/Flutter/material_drawer/android/app/src/debug/AndroidManifest.xml
	android:versionCode
		INJECTED from /home/felix/Code/Flutter/material_drawer/android/app/src/main/AndroidManifest.xml
		ADDED from /home/felix/Code/Flutter/material_drawer/android/app/src/main/AndroidManifest.xml:1:1-36:12
		INJECTED from /home/felix/Code/Flutter/material_drawer/android/app/src/debug/AndroidManifest.xml
	xmlns:android
		ADDED from /home/felix/Code/Flutter/material_drawer/android/app/src/main/AndroidManifest.xml:1:11-69
uses-permission#android.permission.INTERNET
ADDED from /home/felix/Code/Flutter/material_drawer/android/app/src/main/AndroidManifest.xml:9:5-66
MERGED from /home/felix/Code/Flutter/material_drawer/android/app/src/main/AndroidManifest.xml:9:5-66
MERGED from /home/felix/Code/Flutter/material_drawer/android/app/src/main/AndroidManifest.xml:9:5-66
	android:name
		ADDED from /home/felix/Code/Flutter/material_drawer/android/app/src/main/AndroidManifest.xml:9:22-64
application
ADDED from /home/felix/Code/Flutter/material_drawer/android/app/src/main/AndroidManifest.xml:12:5-35:19
MERGED from [:url_launcher] /home/felix/Code/Flutter/material_drawer/build/url_launcher/intermediates/merged_manifests/debug/processDebugManifest/merged/AndroidManifest.xml:7:5-12:19
MERGED from [:url_launcher] /home/felix/Code/Flutter/material_drawer/build/url_launcher/intermediates/merged_manifests/debug/processDebugManifest/merged/AndroidManifest.xml:7:5-12:19
	android:label
		ADDED from /home/felix/Code/Flutter/material_drawer/android/app/src/main/AndroidManifest.xml:14:9-45
	android:icon
		ADDED from /home/felix/Code/Flutter/material_drawer/android/app/src/main/AndroidManifest.xml:15:9-43
	android:name
		ADDED from /home/felix/Code/Flutter/material_drawer/android/app/src/main/AndroidManifest.xml:13:9-57
activity#com.felixcolon.material_drawer.MainActivity
ADDED from /home/felix/Code/Flutter/material_drawer/android/app/src/main/AndroidManifest.xml:16:9-34:20
	android:launchMode
		ADDED from /home/felix/Code/Flutter/material_drawer/android/app/src/main/AndroidManifest.xml:18:13-43
	android:hardwareAccelerated
		ADDED from /home/felix/Code/Flutter/material_drawer/android/app/src/main/AndroidManifest.xml:21:13-47
	android:windowSoftInputMode
		ADDED from /home/felix/Code/Flutter/material_drawer/android/app/src/main/AndroidManifest.xml:22:13-55
	android:configChanges
		ADDED from /home/felix/Code/Flutter/material_drawer/android/app/src/main/AndroidManifest.xml:20:13-144
	android:theme
		ADDED from /home/felix/Code/Flutter/material_drawer/android/app/src/main/AndroidManifest.xml:19:13-47
	android:name
		ADDED from /home/felix/Code/Flutter/material_drawer/android/app/src/main/AndroidManifest.xml:17:13-41
meta-data#io.flutter.app.android.SplashScreenUntilFirstFrame
ADDED from /home/felix/Code/Flutter/material_drawer/android/app/src/main/AndroidManifest.xml:27:13-29:40
	android:value
		ADDED from /home/felix/Code/Flutter/material_drawer/android/app/src/main/AndroidManifest.xml:29:17-37
	android:name
		ADDED from /home/felix/Code/Flutter/material_drawer/android/app/src/main/AndroidManifest.xml:28:17-82
intent-filter#action:name:android.intent.action.MAIN+category:name:android.intent.category.LAUNCHER
ADDED from /home/felix/Code/Flutter/material_drawer/android/app/src/main/AndroidManifest.xml:30:13-33:29
action#android.intent.action.MAIN
ADDED from /home/felix/Code/Flutter/material_drawer/android/app/src/main/AndroidManifest.xml:31:17-68
	android:name
		ADDED from /home/felix/Code/Flutter/material_drawer/android/app/src/main/AndroidManifest.xml:31:25-66
category#android.intent.category.LAUNCHER
ADDED from /home/felix/Code/Flutter/material_drawer/android/app/src/main/AndroidManifest.xml:32:17-76
	android:name
		ADDED from /home/felix/Code/Flutter/material_drawer/android/app/src/main/AndroidManifest.xml:32:27-74
uses-sdk
INJECTED from /home/felix/Code/Flutter/material_drawer/android/app/src/main/AndroidManifest.xml reason: use-sdk injection requested
INJECTED from /home/felix/Code/Flutter/material_drawer/android/app/src/main/AndroidManifest.xml
INJECTED from /home/felix/Code/Flutter/material_drawer/android/app/src/main/AndroidManifest.xml
MERGED from [:url_launcher] /home/felix/Code/Flutter/material_drawer/build/url_launcher/intermediates/merged_manifests/debug/processDebugManifest/merged/AndroidManifest.xml:5:5-44
MERGED from [:url_launcher] /home/felix/Code/Flutter/material_drawer/build/url_launcher/intermediates/merged_manifests/debug/processDebugManifest/merged/AndroidManifest.xml:5:5-44
MERGED from [:flutter_webview_plugin] /home/felix/Code/Flutter/material_drawer/build/flutter_webview_plugin/intermediates/merged_manifests/debug/processDebugManifest/merged/AndroidManifest.xml:5:5-44
MERGED from [:flutter_webview_plugin] /home/felix/Code/Flutter/material_drawer/build/flutter_webview_plugin/intermediates/merged_manifests/debug/processDebugManifest/merged/AndroidManifest.xml:5:5-44
INJECTED from /home/felix/Code/Flutter/material_drawer/android/app/src/debug/AndroidManifest.xml
INJECTED from /home/felix/Code/Flutter/material_drawer/android/app/src/debug/AndroidManifest.xml
	android:targetSdkVersion
		INJECTED from /home/felix/Code/Flutter/material_drawer/android/app/src/main/AndroidManifest.xml
		INJECTED from /home/felix/Code/Flutter/material_drawer/android/app/src/debug/AndroidManifest.xml
	android:minSdkVersion
		INJECTED from /home/felix/Code/Flutter/material_drawer/android/app/src/main/AndroidManifest.xml
		INJECTED from /home/felix/Code/Flutter/material_drawer/android/app/src/debug/AndroidManifest.xml
activity#io.flutter.plugins.urllauncher.UrlLauncherPlugin$WebViewActivity
ADDED from [:url_launcher] /home/felix/Code/Flutter/material_drawer/build/url_launcher/intermediates/merged_manifests/debug/processDebugManifest/merged/AndroidManifest.xml:8:9-11:74
	android:exported
		ADDED from [:url_launcher] /home/felix/Code/Flutter/material_drawer/build/url_launcher/intermediates/merged_manifests/debug/processDebugManifest/merged/AndroidManifest.xml:10:13-37
	android:theme
		ADDED from [:url_launcher] /home/felix/Code/Flutter/material_drawer/build/url_launcher/intermediates/merged_manifests/debug/processDebugManifest/merged/AndroidManifest.xml:11:13-71
	android:name
		ADDED from [:url_launcher] /home/felix/Code/Flutter/material_drawer/build/url_launcher/intermediates/merged_manifests/debug/processDebugManifest/merged/AndroidManifest.xml:9:13-92
